[
    {
        "variable_type": "env_var",
        "key": "arch_override",
        "value": "x86_64"
    },
    {
        "variable_type": "env_var",
        "key": "branch",
        "value": "master"
    },
    {
        "variable_type": "env_var",
        "key": "builder_image",
        "value": "registry.gitlab.com/cki-project/containers/builder-fedora"
    },
    {
        "variable_type": "env_var",
        "key": "cki_pipeline_branch",
        "value": "mainline.kernel.org"
    },
    {
        "variable_type": "env_var",
        "key": "cki_pipeline_id",
        "value": "d660494abb0f4b9931a4ea6dac22f8e35c725abd3fb76d595f768db93ae6cbc5"
    },
    {
        "variable_type": "env_var",
        "key": "cki_pipeline_type",
        "value": "baseline"
    },
    {
        "variable_type": "env_var",
        "key": "cki_project",
        "value": "cki-project/cki-pipeline"
    },
    {
        "variable_type": "env_var",
        "key": "commit_hash",
        "value": "decd6167bf4f6bec1284006d0522381b44660df3"
    },
    {
        "variable_type": "env_var",
        "key": "config_target",
        "value": "olddefconfig"
    },
    {
        "variable_type": "env_var",
        "key": "git_url",
        "value": "https://git.kernel.org/pub/scm/linux/kernel/git/torvalds/linux.git"
    },
    {
        "variable_type": "env_var",
        "key": "kernel_type",
        "value": "upstream"
    },
    {
        "variable_type": "env_var",
        "key": "mail_add_maintainers_to",
        "value": "cc"
    },
    {
        "variable_type": "env_var",
        "key": "mail_bcc",
        "value": "mail@redhat.com"
    },
    {
        "variable_type": "env_var",
        "key": "mail_from",
        "value": "CKI Project <cki-project@redhat.com>"
    },
    {
        "variable_type": "env_var",
        "key": "make_target",
        "value": "targz-pkg"
    },
    {
        "variable_type": "env_var",
        "key": "name",
        "value": "mainline.kernel.org"
    },
    {
        "variable_type": "env_var",
        "key": "report_template",
        "value": "limited"
    },
    {
        "variable_type": "env_var",
        "key": "report_types",
        "value": "email"
    },
    {
        "variable_type": "env_var",
        "key": "require_manual_review",
        "value": "False"
    },
    {
        "variable_type": "env_var",
        "key": "test_set",
        "value": "kt1"
    },
    {
        "variable_type": "env_var",
        "key": "title",
        "value": "Baseline: mainline.kernel.org master:decd6167bf4f"
    },
    {
        "variable_type": "env_var",
        "key": "tree_name",
        "value": "upstream"
    },
    {
        "variable_type": "env_var",
        "key": "patch_urls",
        "value": "http://patchwork/patch/2200409/mbox/ http://patchwork/patch/2200411/mbox/"
    }
]
