{
    "id": 609216,
    "sha": "545b4cc0826a905ff729eed6c32c69265c368c06",
    "ref": "upstream-stable",
    "status": "failed",
    "created_at": "2020-06-30T08:40:29.174Z",
    "updated_at": "2020-06-30T18:15:49.681Z",
    "web_url": "https://gitlab/cki-project/cki-pipeline/pipelines/609216",
    "before_sha": "0000000000000000000000000000000000000000",
    "tag": false,
    "yaml_errors": null,
    "user": {
        "id": 103,
        "name": "CKI CI Bot",
        "username": "cki-ci-bot",
        "state": "active",
        "avatar_url": "https://secure.gravatar.com/avatar/5dfcf3e2cf0c82625437728c990b46e3?s=80&d=identicon",
        "web_url": "https://gitlab/cki-ci-bot"
    },
    "started_at": "2020-06-30T08:40:33.745Z",
    "finished_at": "2020-06-30T18:15:49.659Z",
    "committed_at": null,
    "duration": 34512,
    "coverage": null,
    "detailed_status": {
        "icon": "status_failed",
        "text": "failed",
        "label": "failed",
        "group": "failed",
        "tooltip": "failed",
        "has_details": true,
        "details_path": "/cki-project/cki-pipeline/pipelines/609216",
        "illustration": null,
        "favicon": "/assets/ci_favicons/favicon_status_failed-41304d7f7e3828808b0c26771f0309e55296819a9beea3ea9fbf6689d9857c12.png"
    }
}
